{
    "coins":{
        "current_page":1,
        "data":[
            {
                "id":1,
                "name":"Bitcoin",
                "symbol":"BTC",
                "logo":null,
                "rank":1,
                "price_usd":"9313.19000000",
                "price_btc":"1.00000000",
                "24h_volume_usd":8198090000,
                "market_cap_usd":158444370151,
                "available_supply":17012900,
                "total_supply":17012900,
                "percent_change_1h":"0.79000000",
                "percent_change_24h":"2.05000000",
                "percent_change_7d":"5.22000000",
                "created_at":"2018-05-03T13:37:28+00:00",
                "updated_at":"2018-05-03T13:37:28+00:00"
            },
            {
                "id":2,
                "name":"Ethereum",
                "symbol":"ETH",
                "logo":null,
                "rank":2,
                "price_usd":"743.41600000",
                "price_btc":"0.07987020",
                "24h_volume_usd":3309370000,
                "market_cap_usd":73749624622,
                "available_supply":99203709,
                "total_supply":99203709,
                "percent_change_1h":"1.60000000",
                "percent_change_24h":"9.78000000",
                "percent_change_7d":"17.78000000",
                "created_at":"2018-05-03T13:37:28+00:00",
                "updated_at":"2018-05-03T13:37:28+00:00"
            },
            {
                "id":3,
                "name":"Ripple",
                "symbol":"XRP",
                "logo":null,
                "rank":3,
                "price_usd":"0.86426900",
                "price_btc":"0.00009285",
                "24h_volume_usd":546129000,
                "market_cap_usd":33839459687,
                "available_supply":39153851043,
                "total_supply":99992300953,
                "percent_change_1h":"0.52000000",
                "percent_change_24h":"1.78000000",
                "percent_change_7d":"6.89000000",
                "created_at":"2018-05-03T13:37:28+00:00",
                "updated_at":"2018-05-03T13:37:28+00:00"
            },
            {
                "id":4,
                "name":"Bitcoin Cash",
                "symbol":"BCH",
                "logo":null,
                "rank":4,
                "price_usd":"1506.35000000",
                "price_btc":"0.16183700",
                "24h_volume_usd":1194080000,
                "market_cap_usd":25769788478,
                "available_supply":17107438,
                "total_supply":17107438,
                "percent_change_1h":"1.51000000",
                "percent_change_24h":"4.40000000",
                "percent_change_7d":"13.15000000",
                "created_at":"2018-05-03T13:37:28+00:00",
                "updated_at":"2018-05-03T13:37:28+00:00"
            },
            {
                "id":5,
                "name":"EOS",
                "symbol":"EOS",
                "logo":null,
                "rank":5,
                "price_usd":"18.10530000",
                "price_btc":"0.00194517",
                "24h_volume_usd":1916790000,
                "market_cap_usd":15079753893,
                "available_supply":832891689,
                "total_supply":900000000,
                "percent_change_1h":"0.32000000",
                "percent_change_24h":"-2.91000000",
                "percent_change_7d":"23.08000000",
                "created_at":"2018-05-03T13:37:28+00:00",
                "updated_at":"2018-05-03T13:37:28+00:00"
            },
            {
                "id":6,
                "name":"Cardano",
                "symbol":"ADA",
                "logo":null,
                "rank":6,
                "price_usd":"0.37792300",
                "price_btc":"0.00004060",
                "24h_volume_usd":293001000,
                "market_cap_usd":9798436279,
                "available_supply":25927070538,
                "total_supply":31112483745,
                "percent_change_1h":"0.92000000",
                "percent_change_24h":"3.12000000",
                "percent_change_7d":"35.71000000",
                "created_at":"2018-05-03T13:37:28+00:00",
                "updated_at":"2018-05-03T13:37:28+00:00"
            },
            {
                "id":7,
                "name":"Litecoin",
                "symbol":"LTC",
                "logo":null,
                "rank":7,
                "price_usd":"154.76800000",
                "price_btc":"0.01662780",
                "24h_volume_usd":415438000,
                "market_cap_usd":8723140442,
                "available_supply":56362688,
                "total_supply":56362688,
                "percent_change_1h":"1.58000000",
                "percent_change_24h":"4.29000000",
                "percent_change_7d":"5.98000000",
                "created_at":"2018-05-03T13:37:28+00:00",
                "updated_at":"2018-05-03T13:37:28+00:00"
            },
            {
                "id":8,
                "name":"Stellar",
                "symbol":"XLM",
                "logo":null,
                "rank":8,
                "price_usd":"0.43777600",
                "price_btc":"0.00004703",
                "24h_volume_usd":63192500,
                "market_cap_usd":8130338934,
                "available_supply":18571915623,
                "total_supply":103906864158,
                "percent_change_1h":"0.83000000",
                "percent_change_24h":"0.03000000",
                "percent_change_7d":"16.49000000",
                "created_at":"2018-05-03T13:37:28+00:00",
                "updated_at":"2018-05-03T13:37:28+00:00"
            },
            {
                "id":9,
                "name":"IOTA",
                "symbol":"MIOTA",
                "logo":null,
                "rank":9,
                "price_usd":"2.33673000",
                "price_btc":"0.00025105",
                "24h_volume_usd":225125000,
                "market_cap_usd":6495011798,
                "available_supply":2779530283,
                "total_supply":2779530283,
                "percent_change_1h":"0.10000000",
                "percent_change_24h":"12.23000000",
                "percent_change_7d":"25.00000000",
                "created_at":"2018-05-03T13:37:28+00:00",
                "updated_at":"2018-05-03T13:37:28+00:00"
            },
            {
                "id":10,
                "name":"TRON",
                "symbol":"TRX",
                "logo":null,
                "rank":10,
                "price_usd":"0.08785480",
                "price_btc":"0.00000944",
                "24h_volume_usd":619618000,
                "market_cap_usd":5776287199,
                "available_supply":65748111645,
                "total_supply":100000000000,
                "percent_change_1h":"0.93000000",
                "percent_change_24h":"-3.19000000",
                "percent_change_7d":"26.43000000",
                "created_at":"2018-05-03T13:37:28+00:00",
                "updated_at":"2018-05-03T13:37:28+00:00"
            },
            {
                "id":11,
                "name":"NEO",
                "symbol":"NEO",
                "logo":null,
                "rank":11,
                "price_usd":"86.20950000",
                "price_btc":"0.00926208",
                "24h_volume_usd":166312000,
                "market_cap_usd":5603617500,
                "available_supply":65000000,
                "total_supply":100000000,
                "percent_change_1h":"1.63000000",
                "percent_change_24h":"3.14000000",
                "percent_change_7d":"19.39000000",
                "created_at":"2018-05-03T13:37:28+00:00",
                "updated_at":"2018-05-03T13:37:28+00:00"
            },
            {
                "id":12,
                "name":"Monero",
                "symbol":"XMR",
                "logo":null,
                "rank":12,
                "price_usd":"249.87900000",
                "price_btc":"0.02684630",
                "24h_volume_usd":87178100,
                "market_cap_usd":3996396126,
                "available_supply":15993325,
                "total_supply":15993325,
                "percent_change_1h":"2.10000000",
                "percent_change_24h":"2.34000000",
                "percent_change_7d":"-4.30000000",
                "created_at":"2018-05-03T13:37:28+00:00",
                "updated_at":"2018-05-03T13:37:28+00:00"
            },
            {
                "id":13,
                "name":"Dash",
                "symbol":"DASH",
                "logo":null,
                "rank":13,
                "price_usd":"490.52700000",
                "price_btc":"0.05270070",
                "24h_volume_usd":111349000,
                "market_cap_usd":3945911851,
                "available_supply":8044230,
                "total_supply":8044230,
                "percent_change_1h":"0.90000000",
                "percent_change_24h":"4.39000000",
                "percent_change_7d":"3.67000000",
                "created_at":"2018-05-03T13:37:28+00:00",
                "updated_at":"2018-05-03T13:37:28+00:00"
            },
            {
                "id":14,
                "name":"NEM",
                "symbol":"XEM",
                "logo":null,
                "rank":14,
                "price_usd":"0.42474600",
                "price_btc":"0.00004563",
                "24h_volume_usd":33965600,
                "market_cap_usd":3822714000,
                "available_supply":8999999999,
                "total_supply":8999999999,
                "percent_change_1h":"0.66000000",
                "percent_change_24h":"4.76000000",
                "percent_change_7d":"12.54000000",
                "created_at":"2018-05-03T13:37:28+00:00",
                "updated_at":"2018-05-03T13:37:28+00:00"
            },
            {
                "id":15,
                "name":"VeChain",
                "symbol":"VEN",
                "logo":null,
                "rank":15,
                "price_usd":"5.27810000",
                "price_btc":"0.00056706",
                "24h_volume_usd":134932000,
                "market_cap_usd":2775114867,
                "available_supply":525779138,
                "total_supply":873378637,
                "percent_change_1h":"1.25000000",
                "percent_change_24h":"8.75000000",
                "percent_change_7d":"41.52000000",
                "created_at":"2018-05-03T13:37:28+00:00",
                "updated_at":"2018-05-03T13:37:28+00:00"
            },
            {
                "id":16,
                "name":"Tether",
                "symbol":"USDT",
                "logo":null,
                "rank":16,
                "price_usd":"0.99687800",
                "price_btc":"0.00010710",
                "24h_volume_usd":3475310000,
                "market_cap_usd":2309906700,
                "available_supply":2317140814,
                "total_supply":2580109970,
                "percent_change_1h":"-0.03000000",
                "percent_change_24h":"-0.23000000",
                "percent_change_7d":"-0.23000000",
                "created_at":"2018-05-03T13:37:28+00:00",
                "updated_at":"2018-05-03T13:37:28+00:00"
            },
            {
                "id":17,
                "name":"Ethereum Classic",
                "symbol":"ETC",
                "logo":null,
                "rank":17,
                "price_usd":"22.41760000",
                "price_btc":"0.00240847",
                "24h_volume_usd":262540000,
                "market_cap_usd":2275591297,
                "available_supply":101509140,
                "total_supply":101509140,
                "percent_change_1h":"0.53000000",
                "percent_change_24h":"4.72000000",
                "percent_change_7d":"16.65000000",
                "created_at":"2018-05-03T13:37:28+00:00",
                "updated_at":"2018-05-03T13:37:28+00:00"
            },
            {
                "id":18,
                "name":"Qtum",
                "symbol":"QTUM",
                "logo":null,
                "rank":18,
                "price_usd":"22.49300000",
                "price_btc":"0.00241657",
                "24h_volume_usd":201255000,
                "market_cap_usd":1992156875,
                "available_supply":88567860,
                "total_supply":100567860,
                "percent_change_1h":"1.13000000",
                "percent_change_24h":"2.25000000",
                "percent_change_7d":"15.06000000",
                "created_at":"2018-05-03T13:37:28+00:00",
                "updated_at":"2018-05-03T13:37:28+00:00"
            },
            {
                "id":19,
                "name":"OmiseGO",
                "symbol":"OMG",
                "logo":null,
                "rank":19,
                "price_usd":"18.33090000",
                "price_btc":"0.00196941",
                "24h_volume_usd":120388000,
                "market_cap_usd":1870531812,
                "available_supply":102042552,
                "total_supply":140245398,
                "percent_change_1h":"0.31000000",
                "percent_change_24h":"7.98000000",
                "percent_change_7d":"-0.64000000",
                "created_at":"2018-05-03T13:37:28+00:00",
                "updated_at":"2018-05-03T13:37:28+00:00"
            },
            {
                "id":20,
                "name":"ICON",
                "symbol":"ICX",
                "logo":null,
                "rank":20,
                "price_usd":"4.52102000",
                "price_btc":"0.00048573",
                "24h_volume_usd":66206800,
                "market_cap_usd":1750680671,
                "available_supply":387231348,
                "total_supply":400228740,
                "percent_change_1h":"-0.27000000",
                "percent_change_24h":"4.39000000",
                "percent_change_7d":"17.33000000",
                "created_at":"2018-05-03T13:37:28+00:00",
                "updated_at":"2018-05-03T13:37:28+00:00"
            },
            {
                "id":21,
                "name":"Binance Coin",
                "symbol":"BNB",
                "logo":null,
                "rank":21,
                "price_usd":"14.41090000",
                "price_btc":"0.00154826",
                "24h_volume_usd":86632000,
                "market_cap_usd":1643437628,
                "available_supply":114041290,
                "total_supply":194972068,
                "percent_change_1h":"1.01000000",
                "percent_change_24h":"2.72000000",
                "percent_change_7d":"2.67000000",
                "created_at":"2018-05-03T13:37:28+00:00",
                "updated_at":"2018-05-03T13:37:28+00:00"
            },
            {
                "id":22,
                "name":"Lisk",
                "symbol":"LSK",
                "logo":null,
                "rank":22,
                "price_usd":"14.02700000",
                "price_btc":"0.00150702",
                "24h_volume_usd":52144200,
                "market_cap_usd":1479833048,
                "available_supply":105498898,
                "total_supply":120749292,
                "percent_change_1h":"0.03000000",
                "percent_change_24h":"-0.17000000",
                "percent_change_7d":"26.08000000",
                "created_at":"2018-05-03T13:37:28+00:00",
                "updated_at":"2018-05-03T13:37:28+00:00"
            },
            {
                "id":23,
                "name":"Nano",
                "symbol":"NANO",
                "logo":null,
                "rank":23,
                "price_usd":"9.71280000",
                "price_btc":"0.00104351",
                "24h_volume_usd":72255700,
                "market_cap_usd":1294213983,
                "available_supply":133248289,
                "total_supply":133248289,
                "percent_change_1h":"3.62000000",
                "percent_change_24h":"18.86000000",
                "percent_change_7d":"37.41000000",
                "created_at":"2018-05-03T13:37:28+00:00",
                "updated_at":"2018-05-03T13:37:28+00:00"
            },
            {
                "id":24,
                "name":"Bitcoin Gold",
                "symbol":"BTG",
                "logo":null,
                "rank":24,
                "price_usd":"75.47660000",
                "price_btc":"0.00810897",
                "24h_volume_usd":30277100,
                "market_cap_usd":1281688794,
                "available_supply":16981274,
                "total_supply":17081274,
                "percent_change_1h":"0.98000000",
                "percent_change_24h":"1.87000000",
                "percent_change_7d":"3.03000000",
                "created_at":"2018-05-03T13:37:28+00:00",
                "updated_at":"2018-05-03T13:37:28+00:00"
            },
            {
                "id":25,
                "name":"Bytecoin",
                "symbol":"BCN",
                "logo":null,
                "rank":25,
                "price_usd":"0.00666445",
                "price_btc":"0.00000072",
                "24h_volume_usd":10142500,
                "market_cap_usd":1225398681,
                "available_supply":183870939164,
                "total_supply":183870939164,
                "percent_change_1h":"1.89000000",
                "percent_change_24h":"23.90000000",
                "percent_change_7d":"33.31000000",
                "created_at":"2018-05-03T13:37:28+00:00",
                "updated_at":"2018-05-03T13:37:28+00:00"
            }
        ],
        "first_page_url":"http:\/\/test.cryptojet.io\/coins?page=1",
        "from":1,
        "last_page":20,
        "last_page_url":"http:\/\/test.cryptojet.io\/coins?page=20",
        "next_page_url":"http:\/\/test.cryptojet.io\/coins?page=2",
        "path":"http:\/\/test.cryptojet.io\/coins",
        "per_page":25,
        "prev_page_url":null,
        "to":25,
        "total":500
    }
}
